{
    "app-id": "org.remmina.Remmina",
    "runtime": "org.gnome.Platform",
    "runtime-version": "3.30",
    "sdk": "org.gnome.Sdk",
    "build-options" : {
        "cflags": "-O2 -g",
        "cxxflags": "-O2 -g"
    },
    "command": "remmina",
    "cleanup": [
        "*.a",
        "*.la",
        "/build-aux",
        "/include",
        "/lib/cmake",
        "/lib/pkgconfig",
        "/share/gnome-session",
        "/share/gtk-doc",
        "/share/man",
        "/share/pkgconfig",
        "/share/xsessions"
    ],
    "finish-args": [
        /* X11 + XShm access */
        "--share=ipc", "--socket=x11",
        /* Needs to talk to the network */
        "--share=network",
        /* Play sounds redirected from guests */
        "--socket=pulseaudio",
        /* Wayland access */
        "--socket=wayland",
        /* SSH_AUTH_SOCK access */
        "--socket=ssh-auth",
        /* File transfer (although limited to user directory) */
        "--filesystem=home",
        /* Desktop notifications */
        "--talk-name=org.freedesktop.Notifications",
        /* Needed to save login credentials */
        "--talk-name=org.freedesktop.secrets",
        /* Appindicator */
        "--talk-name=org.kde.StatusNotifierWatcher",
        /* Query GNOME Shell version (to display systray icon if supported) */
        "--talk-name=org.gnome.Shell",
        /* Local network host discovery */
        "--system-talk-name=org.freedesktop.Avahi",
        /* Needed for dconf to work */
        "--filesystem=xdg-run/dconf", "--filesystem=~/.config/dconf:ro",
        "--talk-name=ca.desrt.dconf", "--env=DCONF_USER_CONFIG_DIR=.config/dconf"
    ],
    "modules": [
        "shared-modules/libappindicator/libappindicator-gtk3-12.10.json",
        {
            "name": "avahi",
            "cleanup": [
                "/bin",
                "/lib/avahi",
                "/share/applications/*.desktop",
                "/share/avahi"
            ],
            "config-opts": [
                "--with-distro=none",
                "--disable-gobject",
                "--disable-introspection",
                "--disable-qt3",
                "--disable-qt4",
                "--disable-gtk",
                "--disable-libdaemon",
                "--disable-python",
                "--disable-pygobject",
                "--disable-mono",
                "--disable-monodoc",
                "--disable-autoipd",
                "--disable-doxygen-doc",
                "--disable-doxygen-dot",
                "--disable-doxygen-xml",
                "--disable-doxygen-html",
                "--disable-manpages",
                "--disable-xmltoman"
            ],
            "sources": [
                {
                    "type": "archive",
                    "url": "https://www.avahi.org/download/avahi-0.7.tar.gz",
                    "sha256": "57a99b5dfe7fdae794e3d1ee7a62973a368e91e414bd0dfa5d84434de5b14804"
                }
            ]
        },
        {
            "name": "nxproxy",
            "no-autogen": true,
            "make-args": ["PREFIX=/app"],
            "sources": [
                {
                    "type": "archive",
                    "url": "https://code.x2go.org/releases/source/nx-libs/nx-libs-3.5.99.17-1-lite.tar.gz",
                    "sha256": "28a4ebf98577e4848d26be44d1ca79c9a25865ea5d15c682a3a03865e56647a1"
                }
            ]
        },
        {
            "name": "freerdp",
            "buildsystem": "cmake-ninja",
            "cleanup": [
                "/bin",
                "/lib/libwinpr-tools2.so*",
                "/lib/libuwac0.so*"
            ],
            "config-opts": [
                "-DCMAKE_BUILD_TYPE:STRING=Release",
                "-DCMAKE_INSTALL_LIBDIR:PATH=lib",
                "-DWITH_CLIENT:BOOL=OFF",
                "-DWITH_CUPS:BOOL=ON",
                "-DWITH_JPEG:BOOL=ON",
                "-DWITH_MANPAGES:BOOL=OFF",
                "-DWITH_OSS:BOOL=OFF",
                "-DWITH_PULSE:BOOL=ON",
                "-DWITH_SERVER:BOOL=OFF"
            ],
            "sources": [
                {
                    "type": "git",
                    "url": "https://github.com/FreeRDP/FreeRDP.git",
                    "tag": "2.0.0-rc3",
                    "commit": "a4f147683db7aa99a6075aeaf7c698bc6ba84d11"
                }
            ],
            "modules": [
                {
                    /**
                     * libfreerdp use xprop to try to detect keyboard layout
                     */
                    "name": "xprop",
                    "sources": [
                        {
                            "type": "archive",
                            "url": "https://xorg.freedesktop.org/releases/individual/app/xprop-1.2.3.tar.bz2",
                            "sha256": "d22afb28c86d85fff10a50156a7d0fa930c80ae865d70b26d805fd28a17a521b"
                        }
                    ]
                }
            ]
        },
        {
            "name": "spice-gtk",
            "build-options": {
                "env": {
                    "PYTHONPATH": "/app/build-aux"
                }
            },
            "cleanup": [
                "/bin",
                "/share/vala"
            ],
            "config-opts": [
                "PYTHON=python3",
                "--disable-introspection",
                "--disable-vala"
            ],
            "sources": [
                {
                    "type": "archive",
                    "url": "http://www.spice-space.org/download/gtk/spice-gtk-0.35.tar.bz2",
                    "sha256": "b4e6073de5125e2bdecdf1fbe7c9e8c4cabe9c85518889b42f72bf63c8ab9e86"
                }
            ],
            "modules": [
                {
                    "name": "python-pyparsing",
                    "buildsystem": "simple",
                    "build-commands": [
                        "pip3 install --target=/app/build-aux ./pyparsing-2.3.0-py2.py3-none-any.whl"
                    ],
                    "sources": [
                        {
                            "type": "file",
                            "url": "https://files.pythonhosted.org/packages/71/e8/6777f6624681c8b9701a8a0a5654f3eb56919a01a78e12bf3c73f5a3c714/pyparsing-2.3.0-py2.py3-none-any.whl",
                            "sha256": "40856e74d4987de5d01761a22d1621ae1c7f8774585acae358aa5c5936c6c90b"
                        }
                    ]
                },
                {
                    "name": "python-six",
                    "buildsystem": "simple",
                    "build-commands": [
                        "pip3 install --target=/app/build-aux ./six-1.12.0-py2.py3-none-any.whl"
                    ],
                    "sources": [
                        {
                            "type": "file",
                            "url": "https://files.pythonhosted.org/packages/73/fb/00a976f728d0d1fecfe898238ce23f502a721c0ac0ecfedb80e0d88c64e9/six-1.12.0-py2.py3-none-any.whl",
                            "sha256": "3350809f0555b11f552448330d0b52d5f24c91a322ea4a15ef22629740f3761c"
                        }
                    ]
                },
                {
                    "name": "lz4",
                    "subdir": "lib",
                    "no-autogen": true,
                    "make-args": ["lib"],
                    "make-install-args": ["PREFIX=/app"],
                    "sources": [
                        {
                            "type": "archive",
                            "url": "https://github.com/lz4/lz4/archive/v1.8.3/lz4-1.8.3.tar.gz",
                            "sha256": "33af5936ac06536805f9745e0b6d61da606a1f8b4cc5c04dd3cbaca3b9b4fc43"
                        }
                    ]
                },
                {
                    /**
                     * For webdav (shared folder) support
                     */
                    "name": "phodav",
                    "cleanup": [
                        "/bin",
                        "/sbin",
                        "/lib/systemd",
                        "/lib/udev"
                    ],
                    "config-opts": [
                        "--disable-gtk-doc"
                    ],
                    "sources": [
                        {
                            "type": "archive",
                            "url": "http://download.gnome.org/sources/phodav/2.2/phodav-2.2.tar.xz",
                            "sha256": "080305dc9e804562f200ffc8c7d345c76754fce9cb01489dddb1b2c52c0557c1"
                        }
                    ]
                },
                {
                    "name": "spice-protocol",
                    "buildsystem": "meson",
                    "sources": [
                        {
                            "type": "archive",
                            "url": "https://www.spice-space.org/download/releases/spice-protocol-0.12.14.tar.bz2",
                            "sha256": "20350bc4309039fdf0d29ee4fd0033cde27bccf33501e13b3c1befafde9d0c9c"
                        }
                    ]
                }
            ]
        },
        {
            "name": "libssh",
            "buildsystem": "cmake-ninja",
            "builddir": true,
            "config-opts": [
                "-DCMAKE_BUILD_TYPE:STRING=Release",
                "-DWITH_NACL:BOOL=ON",
                "-DNACL_INCLUDE_DIR:PATH=/app/include/",
                "-DNACL_LIBRARY:PATH=/app/lib/nacl/libnacl.a",
                "-DWITH_EXAMPLES:BOOL=OFF"
            ],
            "sources": [
                {
                    "type": "archive",
                    "url": "https://www.libssh.org/files/0.8/libssh-0.8.5.tar.xz",
                    "sha256": "07d2c431240fc88f6b06bcb36ae267f9afeedce2e32f6c42f8844b205ab5a335"
                }
            ],
            "modules": [
                {
                    "name": "nacl",
                    "buildsystem": "simple",
                    "build-commands": [
                        /* Patch build system */
                        "echo ${CC:-gcc} ${CPPFLAGS} ${CFLAGS} -fPIC >okcompilers/c",
                        "echo ${CXX:-g++} ${CPPFLAGS} ${CXXFLAGS} -fPIC >okcompilers/cpp",
                        "sed -e '/shorthostname=/ s/.*/shorthostname=flatpak-builder/g' -i ./do",
                        /* Build */
                        "./do",
                        "cat ./build/flatpak-builder/log",
                        /* Install */
                        "mkdir -v -p /app/lib/nacl",
                        "install -v -m644 -t /app/lib/nacl/ ./build/flatpak-builder/lib/*/*.a",
                        "mkdir -v -p /app/include/nacl",
                        "install -v -m644 -t /app/include/nacl/ ./build/flatpak-builder/include/*/*.h"
                    ],
                    "sources": [
                        {
                            "type": "archive",
                            "url": "https://hyperelliptic.org/nacl/nacl-20110221.tar.bz2",
                            "sha256": "4f277f89735c8b0b8a6bbd043b3efb3fa1cc68a9a5da6a076507d067fc3b3bf8"
                        },
                        {
                            "type": "patch",
                            "path": "patches/nacl-20110221-cpufreq-fallback.patch"
                        }
                    ]
                }
            ]
        },
        {
            /**
             * Telepathy plugin would require the following files to be exported
             * outside of flatpak:
             *   - ${XDG_DATA_DIR}//telepathy//clients//Remmina.client
             *   - ${XDG_DATA_DIR}//dbus-1//services//org.freedesktop.Telepathy.Client.Remmina.service
             */
            "name": "telepathy-glib",
            "disabled": true,
            "config-opts": [
                "--disable-introspection"
            ],
            "sources": [
                {
                    "type": "archive",
                    "url": "https://telepathy.freedesktop.org/releases/telepathy-glib/telepathy-glib-0.24.1.tar.gz",
                    "sha256": "9e0df1d8f857e0270cf0b32e2d1ca5a24aa7282873361785d573f72ad7f7d5eb"
                }
            ]
        },
        {
            "name": "libvncserver",
            "cleanup": [
                "/bin",
                "/lib/libvncserver.so*"
            ],
            "sources": [
                {
                    "type": "archive",
                    "url": "https://github.com/LibVNC/libvncserver/archive/LibVNCServer-0.9.11.tar.gz",
                    "sha256": "193d630372722a532136fd25c5326b2ca1a636cbb8bf9bb115ef869c804d2894"
                }
            ]
        },
        {
            /**
             * Xephyr version 1.17.0 and later don't work fine with GtkSocket,
             * therefore we remain at version 1.16.4:
             *   - https://github.com//FreeRDP//Remmina//issues//366
             *   - https://bugs.freedesktop.org//show_bug.cgi?id=91700
             */
            "name": "xephyr",
            "config-opts": [
                "--enable-kdrive",
                "--enable-kdrive-evdev",
                "--disable-kdrive-kbd",
                "--disable-kdrive-mouse",
                "--enable-xephyr",
                "--disable-xorg",
                "--disable-xvfb",
                "--disable-xnest",
                "--disable-xquartz",
                "--disable-xwayland",
                "--disable-standalone-xpbproxy",
                "--disable-xwin",
                "--disable-xfake",
                "--disable-xfbdev",
                "--disable-dmx",
                "--with-fontrootdir=/usr/share/fonts",
                "--with-xkb-path=/usr/share/X11/xkb",
                "--with-xkb-output=/var/lib/xkb"
            ],
            "sources": [
                {
                    "type": "archive",
                    "url": "https://xorg.freedesktop.org/releases/individual/xserver/xorg-server-1.16.4.tar.bz2",
                    "sha256": "abb6e1cc9213a9915a121f48576ff6739a0b8cdb3d32796f9a7743c9a6efc871"
                }
            ],
            "modules": [
                {
                    "name": "libfontenc",
                    "config-opts": [
                        "--with-fontrootdir=/usr/share/fonts"
                    ],
                    "sources": [
                        {
                            "type": "archive",
                            "url": "https://xorg.freedesktop.org/releases/individual/lib/libfontenc-1.1.3.tar.bz2",
                            "sha256": "70588930e6fc9542ff38e0884778fbc6e6febf21adbab92fd8f524fe60aefd21"
                        }
                    ]
                },
                {
                    "name": "libXfont",
                    "sources": [
                        {
                            "type": "archive",
                            "url": "https://xorg.freedesktop.org/releases/individual/lib/libXfont-1.5.4.tar.bz2",
                            "sha256": "1a7f7490774c87f2052d146d1e0e64518d32e6848184a18654e8d0bb57883242"
                        }
                    ]
                }
            ]
        },
        {
            "name": "remmina",
            "buildsystem": "cmake-ninja",
            "cleanup": [
                "/bin/remmina-gnome",
                "/bin/gnome-session-remmina",
                "/share/applications/remmina-gnome.desktop"
            ],
            "config-opts": [
                "-DCMAKE_BUILD_TYPE:STRING=Release",
                "-DCMAKE_INSTALL_LIBDIR:PATH=lib",
                "-DWITH_MANPAGES:BOOL=OFF",
                "-DWITH_TELEPATHY:BOOL=OFF"
            ],
            "sources": [
                {
                    "type": "git",
                    "url": "https://gitlab.com/Remmina/Remmina.git",
                    "branch": "master"
                }
            ]
        }
    ]
}
